%YAML 1.1
%TAG !u! tag:unity3d.com,2011:
--- !u!74 &7400000
AnimationClip:
  m_ObjectHideFlags: 0
  m_PrefabParentObject: {fileID: 0}
  m_PrefabInternal: {fileID: 0}
  m_Name: Bandage
  serializedVersion: 6
  m_Legacy: 0
  m_Compressed: 0
  m_UseHighQualityCurve: 1
  m_RotationCurves: []
  m_CompressedRotationCurves: []
  m_EulerCurves: []
  m_PositionCurves: []
  m_ScaleCurves: []
  m_FloatCurves:
  - curve:
      serializedVersion: 2
      m_Curve:
      - serializedVersion: 2
        time: 0
        value: 94
        inSlope: -18
        outSlope: -18
        tangentMode: 34
      - serializedVersion: 2
        time: 1
        value: 76
        inSlope: -30
        outSlope: -30
        tangentMode: 34
      - serializedVersion: 2
        time: 2
        value: 34
        inSlope: -35.016396
        outSlope: -35.016396
        tangentMode: 34
      - serializedVersion: 2
        time: 4.0333333
        value: -23
        inSlope: -29.394543
        outSlope: -29.394543
        tangentMode: 34
      - serializedVersion: 2
        time: 6.016667
        value: -84
        inSlope: -15.378149
        outSlope: -15.378149
        tangentMode: 34
      - serializedVersion: 2
        time: 7.983333
        value: -84
        inSlope: 0
        outSlope: 0
        tangentMode: 34
      m_PreInfinity: 2
      m_PostInfinity: 2
      m_RotationOrder: 4
    attribute: m_AnchoredPosition.x
    path: 
    classID: 224
    script: {fileID: 0}
  - curve:
      serializedVersion: 2
      m_Curve:
      - serializedVersion: 2
        time: 0
        value: 208
        inSlope: -482
        outSlope: -482
        tangentMode: 34
      - serializedVersion: 2
        time: 1
        value: -274
        inSlope: 29
        outSlope: 29
        tangentMode: 34
      - serializedVersion: 2
        time: 2
        value: 266
        inSlope: 7.8688354
        outSlope: 7.8688354
        tangentMode: 34
      - serializedVersion: 2
        time: 3.0166667
        value: -267
        inSlope: -10.819687
        outSlope: -10.819687
        tangentMode: 34
      - serializedVersion: 2
        time: 4.0333333
        value: 244
        inSlope: -15.530685
        outSlope: -15.530685
        tangentMode: 34
      - serializedVersion: 2
        time: 4.983333
        value: -263
        inSlope: -37.003555
        outSlope: -37.003555
        tangentMode: 34
      - serializedVersion: 2
        time: 6.016667
        value: 212
        inSlope: -1.368393
        outSlope: -1.368393
        tangentMode: 34
      - serializedVersion: 2
        time: 6.983333
        value: -235
        inSlope: -231.207
        outSlope: -231.207
        tangentMode: 34
      - serializedVersion: 2
        time: 7.983333
        value: -235
        inSlope: 0
        outSlope: 0
        tangentMode: 34
      m_PreInfinity: 2
      m_PostInfinity: 2
      m_RotationOrder: 4
    attribute: m_AnchoredPosition.y
    path: 
    classID: 224
    script: {fileID: 0}
  m_PPtrCurves: []
  m_SampleRate: 60
  m_WrapMode: 0
  m_Bounds:
    m_Center: {x: 0, y: 0, z: 0}
    m_Extent: {x: 0, y: 0, z: 0}
  m_ClipBindingConstant:
    genericBindings:
    - serializedVersion: 2
      path: 0
      attribute: 1460864421
      script: {fileID: 0}
      typeID: 224
      customType: 0
      isPPtrCurve: 0
    - serializedVersion: 2
      path: 0
      attribute: 538195251
      script: {fileID: 0}
      typeID: 224
      customType: 0
      isPPtrCurve: 0
    pptrCurveMapping: []
  m_AnimationClipSettings:
    serializedVersion: 2
    m_AdditiveReferencePoseClip: {fileID: 0}
    m_AdditiveReferencePoseTime: 0
    m_StartTime: 0
    m_StopTime: 7.983333
    m_OrientationOffsetY: 0
    m_Level: 0
    m_CycleOffset: 0
    m_HasAdditiveReferencePose: 0
    m_LoopTime: 0
    m_LoopBlend: 0
    m_LoopBlendOrientation: 0
    m_LoopBlendPositionY: 0
    m_LoopBlendPositionXZ: 0
    m_KeepOriginalOrientation: 0
    m_KeepOriginalPositionY: 1
    m_KeepOriginalPositionXZ: 0
    m_HeightFromFeet: 0
    m_Mirror: 0
  m_EditorCurves:
  - curve:
      serializedVersion: 2
      m_Curve:
      - serializedVersion: 2
        time: 0
        value: 94
        inSlope: -18
        outSlope: -18
        tangentMode: 34
      - serializedVersion: 2
        time: 1
        value: 76
        inSlope: -30
        outSlope: -30
        tangentMode: 34
      - serializedVersion: 2
        time: 2
        value: 34
        inSlope: -35.016396
        outSlope: -35.016396
        tangentMode: 34
      - serializedVersion: 2
        time: 4.0333333
        value: -23
        inSlope: -29.394543
        outSlope: -29.394543
        tangentMode: 34
      - serializedVersion: 2
        time: 6.016667
        value: -84
        inSlope: -15.378149
        outSlope: -15.378149
        tangentMode: 34
      - serializedVersion: 2
        time: 7.983333
        value: -84
        inSlope: 0
        outSlope: 0
        tangentMode: 34
      m_PreInfinity: 2
      m_PostInfinity: 2
      m_RotationOrder: 4
    attribute: m_AnchoredPosition.x
    path: 
    classID: 224
    script: {fileID: 0}
  - curve:
      serializedVersion: 2
      m_Curve:
      - serializedVersion: 2
        time: 0
        value: 208
        inSlope: -482
        outSlope: -482
        tangentMode: 34
      - serializedVersion: 2
        time: 1
        value: -274
        inSlope: 29
        outSlope: 29
        tangentMode: 34
      - serializedVersion: 2
        time: 2
        value: 266
        inSlope: 7.8688354
        outSlope: 7.8688354
        tangentMode: 34
      - serializedVersion: 2
        time: 3.0166667
        value: -267
        inSlope: -10.819687
        outSlope: -10.819687
        tangentMode: 34
      - serializedVersion: 2
        time: 4.0333333
        value: 244
        inSlope: -15.530685
        outSlope: -15.530685
        tangentMode: 34
      - serializedVersion: 2
        time: 4.983333
        value: -263
        inSlope: -37.003555
        outSlope: -37.003555
        tangentMode: 34
      - serializedVersion: 2
        time: 6.016667
        value: 212
        inSlope: -1.368393
        outSlope: -1.368393
        tangentMode: 34
      - serializedVersion: 2
        time: 6.983333
        value: -235
        inSlope: -231.207
        outSlope: -231.207
        tangentMode: 34
      - serializedVersion: 2
        time: 7.983333
        value: -235
        inSlope: 0
        outSlope: 0
        tangentMode: 34
      m_PreInfinity: 2
      m_PostInfinity: 2
      m_RotationOrder: 4
    attribute: m_AnchoredPosition.y
    path: 
    classID: 224
    script: {fileID: 0}
  m_EulerEditorCurves: []
  m_HasGenericRootTransform: 0
  m_HasMotionFloatCurves: 0
  m_GenerateMotionCurves: 0
  m_Events:
  - time: 0.06666667
    functionName: PauseAnimation
    data: 
    objectReferenceParameter: {fileID: 0}
    floatParameter: 0
    intParameter: 0
    messageOptions: 0
  - time: 0.4
    functionName: ApplyBandage
    data: 
    objectReferenceParameter: {fileID: 0}
    floatParameter: 0
    intParameter: 0
    messageOptions: 0
  - time: 1
    functionName: TurnBandage
    data: 
    objectReferenceParameter: {fileID: 0}
    floatParameter: 0
    intParameter: 1
    messageOptions: 0
  - time: 2
    functionName: TurnBandage
    data: 
    objectReferenceParameter: {fileID: 0}
    floatParameter: 0
    intParameter: 0
    messageOptions: 0
  - time: 2.5333333
    functionName: ApplyBandage
    data: 
    objectReferenceParameter: {fileID: 0}
    floatParameter: 0
    intParameter: 1
    messageOptions: 0
  - time: 3.0333333
    functionName: TurnBandage
    data: 
    objectReferenceParameter: {fileID: 0}
    floatParameter: 0
    intParameter: 1
    messageOptions: 0
  - time: 4.016667
    functionName: TurnBandage
    data: 
    objectReferenceParameter: {fileID: 0}
    floatParameter: 0
    intParameter: 0
    messageOptions: 0
  - time: 4.55
    functionName: ApplyBandage
    data: 
    objectReferenceParameter: {fileID: 0}
    floatParameter: 0
    intParameter: 2
    messageOptions: 0
  - time: 5
    functionName: TurnBandage
    data: 
    objectReferenceParameter: {fileID: 0}
    floatParameter: 0
    intParameter: 1
    messageOptions: 0
  - time: 6.016667
    functionName: TurnBandage
    data: 
    objectReferenceParameter: {fileID: 0}
    floatParameter: 0
    intParameter: 0
    messageOptions: 0
  - time: 6.5833335
    functionName: ApplyBandage
    data: 
    objectReferenceParameter: {fileID: 0}
    floatParameter: 0
    intParameter: 3
    messageOptions: 0
  - time: 6.983333
    functionName: TurnBandage
    data: 
    objectReferenceParameter: {fileID: 0}
    floatParameter: 0
    intParameter: 1
    messageOptions: 0
  - time: 7.9666667
    functionName: Finish
    data: 
    objectReferenceParameter: {fileID: 0}
    floatParameter: 0
    intParameter: 0
    messageOptions: 0
